"UUID","PKEY_SRC","PARTY_PKEY_SRC","APPLN_PKEY_SRC","ENTITY_CD","AFFILIATE_CD","CERTIFICATE_NO","BENEFICIARY_ID","DEPENDENT_NO","PARTY_ROLE_CD","DEL_FLG","SOURCE_ROWID","SRC_ROWID","SRC_SYSTEM_CD","TRANSACTION_FLAG","BATCH_ID","LAST_UPDATE_DATE"
RLS:500-0000028:OWN:12287456,RLS:500-0000028:OWN,RLS:500-0000028:OWN,RLS:500-0000028,LTH,"","","","",OWN,"",,,RLS,I,"12287456",2023-04-11 16:06:32.000
RLS:500-0008000:OWN:12287456,RLS:500-0008000:OWN,RLS:500-0008000:OWN,RLS:500-0008000,LTH,"","","","",OWN,"",,,RLS,I,"12287456",2023-04-11 16:06:32.000
RLS:500-0008003:OWN:12287456,RLS:500-0008003:OWN,RLS:500-0008003:OWN,RLS:500-0008003,LTH,"","","","",OWN,"",,,RLS,I,"12287456",2023-04-11 16:06:32.000
RLS:500-0008803:OWN:12287456,RLS:500-0008803:OWN,RLS:500-0008803:OWN,RLS:500-0008803,LTH,"","","","",OWN,"",,,RLS,I,"12287456",2023-04-11 16:06:32.000
RLS:500-2300080:OWN:12287456,RLS:500-2300080:OWN,RLS:500-2300080:OWN,RLS:500-2300080,LTH,"","","","",OWN,"",,,RLS,I,"12287456",2023-04-11 16:06:32.000
RLS:500-3003852:OWN:12287456,RLS:500-3003852:OWN,RLS:500-3003852:OWN,RLS:500-3003852,LTH,"","","","",OWN,"",,,RLS,I,"12287456",2023-04-11 16:06:32.000
RLS:500-3080520:OWN:12287456,RLS:500-3080520:OWN,RLS:500-3080520:OWN,RLS:500-3080520,LTH,"","","","",OWN,"",,,RLS,I,"12287456",2023-04-11 16:06:32.000
RLS:500-3200000:OWN:12287456,RLS:500-3200000:OWN,RLS:500-3200000:OWN,RLS:500-3200000,LTH,"","","","",OWN,"",,,RLS,I,"12287456",2023-04-11 16:06:32.000
RLS:500-3200003:OWN:12287456,RLS:500-3200003:OWN,RLS:500-3200003:OWN,RLS:500-3200003,LTH,"","","","",OWN,"",,,RLS,I,"12287456",2023-04-11 16:06:32.000
RLS:500-3200085:OWN:12287456,RLS:500-3200085:OWN,RLS:500-3200085:OWN,RLS:500-3200085,LTH,"","","","",OWN,"",,,RLS,I,"12287456",2023-04-11 16:06:32.000
RLS:500-3203800:OWN:12287456,RLS:500-3203800:OWN,RLS:500-3203800:OWN,RLS:500-3203800,LTH,"","","","",OWN,"",,,RLS,I,"12287456",2023-04-11 16:06:32.000
RLS:500-3208002:OWN:12287456,RLS:500-3208002:OWN,RLS:500-3208002:OWN,RLS:500-3208002,LTH,"","","","",OWN,"",,,RLS,I,"12287456",2023-04-11 16:06:32.000
RLS:500-3262200:OWN:12287456,RLS:500-3262200:OWN,RLS:500-3262200:OWN,RLS:500-3262200,LTH,"","","","",OWN,"",,,RLS,I,"12287456",2023-04-11 16:06:32.000
RLS:500-3280658:OWN:12287456,RLS:500-3280658:OWN,RLS:500-3280658:OWN,RLS:500-3280658,LTH,"","","","",OWN,"",,,RLS,I,"12287456",2023-04-11 16:06:32.000
RLS:500-3280682:OWN:12287456,RLS:500-3280682:OWN,RLS:500-3280682:OWN,RLS:500-3280682,LTH,"","","","",OWN,"",,,RLS,I,"12287456",2023-04-11 16:06:32.000
RLS:500-3300226:OWN:12287456,RLS:500-3300226:OWN,RLS:500-3300226:OWN,RLS:500-3300226,LTH,"","","","",OWN,"",,,RLS,I,"12287456",2023-04-11 16:06:32.000
RLS:500-3305080:OWN:12287456,RLS:500-3305080:OWN,RLS:500-3305080:OWN,RLS:500-3305080,LTH,"","","","",OWN,"",,,RLS,I,"12287456",2023-04-11 16:06:32.000
RLS:500-3305803:OWN:12287456,RLS:500-3305803:OWN,RLS:500-3305803:OWN,RLS:500-3305803,LTH,"","","","",OWN,"",,,RLS,I,"12287456",2023-04-11 16:06:32.000
RLS:500-3380258:OWN:12287456,RLS:500-3380258:OWN,RLS:500-3380258:OWN,RLS:500-3380258,LTH,"","","","",OWN,"",,,RLS,I,"12287456",2023-04-11 16:06:32.000
RLS:500-3386200:OWN:12287456,RLS:500-3386200:OWN,RLS:500-3386200:OWN,RLS:500-3386200,LTH,"","","","",OWN,"",,,RLS,I,"12287456",2023-04-11 16:06:32.000
RLS:500-6050000:OWN:12287456,RLS:500-6050000:OWN,RLS:500-6050000:OWN,RLS:500-6050000,LTH,"","","","",OWN,"",,,RLS,I,"12287456",2023-04-11 16:06:32.000
RLS:500-8205060:OWN:12287456,RLS:500-8205060:OWN,RLS:500-8205060:OWN,RLS:500-8205060,LTH,"","","","",OWN,"",,,RLS,I,"12287456",2023-04-11 16:06:32.000
RLS:500-8205828:OWN:12287456,RLS:500-8205828:OWN,RLS:500-8205828:OWN,RLS:500-8205828,LTH,"","","","",OWN,"",,,RLS,I,"12287456",2023-04-11 16:06:32.000
RLS:500-8300030:OWN:12287456,RLS:500-8300030:OWN,RLS:500-8300030:OWN,RLS:500-8300030,LTH,"","","","",OWN,"",,,RLS,I,"12287456",2023-04-11 16:06:32.000
RLS:500-8300035:OWN:12287456,RLS:500-8300035:OWN,RLS:500-8300035:OWN,RLS:500-8300035,LTH,"","","","",OWN,"",,,RLS,I,"12287456",2023-04-11 16:06:32.000
RLS:500-0000028:INS:12287456,RLS:500-0000028:INS,RLS:500-0000028:INS,RLS:500-0000028,LTH,"","","","",INS,"",,,RLS,I,"12287456",2023-04-11 16:06:32.000
RLS:500-0008000:INS:12287456,RLS:500-0008000:INS,RLS:500-0008000:INS,RLS:500-0008000,LTH,"","","","",INS,"",,,RLS,I,"12287456",2023-04-11 16:06:32.000
RLS:500-0008003:INS:12287456,RLS:500-0008003:INS,RLS:500-0008003:INS,RLS:500-0008003,LTH,"","","","",INS,"",,,RLS,I,"12287456",2023-04-11 16:06:32.000
RLS:500-0008803:INS:12287456,RLS:500-0008803:INS,RLS:500-0008803:INS,RLS:500-0008803,LTH,"","","","",INS,"",,,RLS,I,"12287456",2023-04-11 16:06:32.000
RLS:500-0008820:INS:12287456,RLS:500-0008820:INS,RLS:500-0008820:INS,RLS:500-0008820,LTH,"","","","",INS,"",,,RLS,I,"12287456",2023-04-11 16:06:32.000
RLS:500-0052003:INS:12287456,RLS:500-0052003:INS,RLS:500-0052003:INS,RLS:500-0052003,LTH,"","","","",INS,"",,,RLS,I,"12287456",2023-04-11 16:06:32.000
RLS:500-0080886:INS:12287456,RLS:500-0080886:INS,RLS:500-0080886:INS,RLS:500-0080886,LTH,"","","","",INS,"",,,RLS,I,"12287456",2023-04-11 16:06:32.000
RLS:500-0085660:INS:12287456,RLS:500-0085660:INS,RLS:500-0085660:INS,RLS:500-0085660,LTH,"","","","",INS,"",,,RLS,I,"12287456",2023-04-11 16:06:32.000
RLS:500-0200020:INS:12287456,RLS:500-0200020:INS,RLS:500-0200020:INS,RLS:500-0200020,LTH,"","","","",INS,"",,,RLS,I,"12287456",2023-04-11 16:06:32.000
RLS:500-0300202:INS:12287456,RLS:500-0300202:INS,RLS:500-0300202:INS,RLS:500-0300202,LTH,"","","","",INS,"",,,RLS,I,"12287456",2023-04-11 16:06:32.000
RLS:500-0300860:INS:12287456,RLS:500-0300860:INS,RLS:500-0300860:INS,RLS:500-0300860,LTH,"","","","",INS,"",,,RLS,I,"12287456",2023-04-11 16:06:32.000
RLS:500-0500002:INS:12287456,RLS:500-0500002:INS,RLS:500-0500002:INS,RLS:500-0500002,LTH,"","","","",INS,"",,,RLS,I,"12287456",2023-04-11 16:06:32.000
RLS:500-0500550:INS:12287456,RLS:500-0500550:INS,RLS:500-0500550:INS,RLS:500-0500550,LTH,"","","","",INS,"",,,RLS,I,"12287456",2023-04-11 16:06:32.000
RLS:500-0500852:INS:12287456,RLS:500-0500852:INS,RLS:500-0500852:INS,RLS:500-0500852,LTH,"","","","",INS,"",,,RLS,I,"12287456",2023-04-11 16:06:32.000
RLS:500-0623060:INS:12287456,RLS:500-0623060:INS,RLS:500-0623060:INS,RLS:500-0623060,LTH,"","","","",INS,"",,,RLS,I,"12287456",2023-04-11 16:06:32.000
RLS:500-0650380:INS:12287456,RLS:500-0650380:INS,RLS:500-0650380:INS,RLS:500-0650380,LTH,"","","","",INS,"",,,RLS,I,"12287456",2023-04-11 16:06:32.000
RLS:500-0666000:INS:12287456,RLS:500-0666000:INS,RLS:500-0666000:INS,RLS:500-0666000,LTH,"","","","",INS,"",,,RLS,I,"12287456",2023-04-11 16:06:32.000
RLS:500-2000000:INS:12287456,RLS:500-2000000:INS,RLS:500-2000000:INS,RLS:500-2000000,LTH,"","","","",INS,"",,,RLS,I,"12287456",2023-04-11 16:06:32.000
RLS:500-2030605:INS:12287456,RLS:500-2030605:INS,RLS:500-2030605:INS,RLS:500-2030605,LTH,"","","","",INS,"",,,RLS,I,"12287456",2023-04-11 16:06:32.000
RLS:500-2035002:INS:12287456,RLS:500-2035002:INS,RLS:500-2035002:INS,RLS:500-2035002,LTH,"","","","",INS,"",,,RLS,I,"12287456",2023-04-11 16:06:32.000
RLS:500-2060035:INS:12287456,RLS:500-2060035:INS,RLS:500-2060035:INS,RLS:500-2060035,LTH,"","","","",INS,"",,,RLS,I,"12287456",2023-04-11 16:06:32.000
RLS:500-2066625:INS:12287456,RLS:500-2066625:INS,RLS:500-2066625:INS,RLS:500-2066625,LTH,"","","","",INS,"",,,RLS,I,"12287456",2023-04-11 16:06:32.000
RLS:500-2230638:INS:12287456,RLS:500-2230638:INS,RLS:500-2230638:INS,RLS:500-2230638,LTH,"","","","",INS,"",,,RLS,I,"12287456",2023-04-11 16:06:32.000
RLS:500-2253020:INS:12287456,RLS:500-2253020:INS,RLS:500-2253020:INS,RLS:500-2253020,LTH,"","","","",INS,"",,,RLS,I,"12287456",2023-04-11 16:06:32.000
RLS:500-2300080:INS:12287456,RLS:500-2300080:INS,RLS:500-2300080:INS,RLS:500-2300080,LTH,"","","","",INS,"",,,RLS,I,"12287456",2023-04-11 16:06:32.000
RLS:500-3003852:INS:12287456,RLS:500-3003852:INS,RLS:500-3003852:INS,RLS:500-3003852,LTH,"","","","",INS,"",,,RLS,I,"12287456",2023-04-11 16:06:32.000
RLS:500-3080520:INS:12287456,RLS:500-3080520:INS,RLS:500-3080520:INS,RLS:500-3080520,LTH,"","","","",INS,"",,,RLS,I,"12287456",2023-04-11 16:06:32.000
RLS:500-3200000:INS:12287456,RLS:500-3200000:INS,RLS:500-3200000:INS,RLS:500-3200000,LTH,"","","","",INS,"",,,RLS,I,"12287456",2023-04-11 16:06:32.000
RLS:500-3200003:INS:12287456,RLS:500-3200003:INS,RLS:500-3200003:INS,RLS:500-3200003,LTH,"","","","",INS,"",,,RLS,I,"12287456",2023-04-11 16:06:32.000
RLS:500-3200085:INS:12287456,RLS:500-3200085:INS,RLS:500-3200085:INS,RLS:500-3200085,LTH,"","","","",INS,"",,,RLS,I,"12287456",2023-04-11 16:06:32.000
RLS:500-3203800:INS:12287456,RLS:500-3203800:INS,RLS:500-3203800:INS,RLS:500-3203800,LTH,"","","","",INS,"",,,RLS,I,"12287456",2023-04-11 16:06:32.000
RLS:500-3262200:INS:12287456,RLS:500-3262200:INS,RLS:500-3262200:INS,RLS:500-3262200,LTH,"","","","",INS,"",,,RLS,I,"12287456",2023-04-11 16:06:32.000
RLS:500-3280658:INS:12287456,RLS:500-3280658:INS,RLS:500-3280658:INS,RLS:500-3280658,LTH,"","","","",INS,"",,,RLS,I,"12287456",2023-04-11 16:06:32.000
RLS:500-3280682:INS:12287456,RLS:500-3280682:INS,RLS:500-3280682:INS,RLS:500-3280682,LTH,"","","","",INS,"",,,RLS,I,"12287456",2023-04-11 16:06:32.000
RLS:500-3305080:INS:12287456,RLS:500-3305080:INS,RLS:500-3305080:INS,RLS:500-3305080,LTH,"","","","",INS,"",,,RLS,I,"12287456",2023-04-11 16:06:32.000
RLS:500-3305803:INS:12287456,RLS:500-3305803:INS,RLS:500-3305803:INS,RLS:500-3305803,LTH,"","","","",INS,"",,,RLS,I,"12287456",2023-04-11 16:06:32.000
RLS:500-3386200:INS:12287456,RLS:500-3386200:INS,RLS:500-3386200:INS,RLS:500-3386200,LTH,"","","","",INS,"",,,RLS,I,"12287456",2023-04-11 16:06:32.000
RLS:500-6050000:INS:12287456,RLS:500-6050000:INS,RLS:500-6050000:INS,RLS:500-6050000,LTH,"","","","",INS,"",,,RLS,I,"12287456",2023-04-11 16:06:32.000
RLS:500-0008820:OWN:12287456,RLS:500-0008820:OWN,RLS:500-0008820:OWN,RLS:500-0008820,LTH,"","","","",OWN,"",,,RLS,I,"12287456",2023-04-11 16:06:32.000
RLS:500-0050000:OWN:12287456,RLS:500-0050000:OWN,RLS:500-0050000:OWN,RLS:500-0050000,LTH,"","","","",OWN,"",,,RLS,I,"12287456",2023-04-11 16:06:32.000
RLS:500-0050033:OWN:12287456,RLS:500-0050033:OWN,RLS:500-0050033:OWN,RLS:500-0050033,LTH,"","","","",OWN,"",,,RLS,I,"12287456",2023-04-11 16:06:32.000
RLS:500-0052003:OWN:12287456,RLS:500-0052003:OWN,RLS:500-0052003:OWN,RLS:500-0052003,LTH,"","","","",OWN,"",,,RLS,I,"12287456",2023-04-11 16:06:32.000
RLS:500-0055030:OWN:12287456,RLS:500-0055030:OWN,RLS:500-0055030:OWN,RLS:500-0055030,LTH,"","","","",OWN,"",,,RLS,I,"12287456",2023-04-11 16:06:32.000
RLS:500-0055305:OWN:12287456,RLS:500-0055305:OWN,RLS:500-0055305:OWN,RLS:500-0055305,LTH,"","","","",OWN,"",,,RLS,I,"12287456",2023-04-11 16:06:32.000
RLS:500-0055520:OWN:12287456,RLS:500-0055520:OWN,RLS:500-0055520:OWN,RLS:500-0055520,LTH,"","","","",OWN,"",,,RLS,I,"12287456",2023-04-11 16:06:32.000
RLS:500-0080550:OWN:12287456,RLS:500-0080550:OWN,RLS:500-0080550:OWN,RLS:500-0080550,LTH,"","","","",OWN,"",,,RLS,I,"12287456",2023-04-11 16:06:32.000
RLS:500-0080886:OWN:12287456,RLS:500-0080886:OWN,RLS:500-0080886:OWN,RLS:500-0080886,LTH,"","","","",OWN,"",,,RLS,I,"12287456",2023-04-11 16:06:32.000
RLS:500-0085660:OWN:12287456,RLS:500-0085660:OWN,RLS:500-0085660:OWN,RLS:500-0085660,LTH,"","","","",OWN,"",,,RLS,I,"12287456",2023-04-11 16:06:32.000
RLS:500-0200020:OWN:12287456,RLS:500-0200020:OWN,RLS:500-0200020:OWN,RLS:500-0200020,LTH,"","","","",OWN,"",,,RLS,I,"12287456",2023-04-11 16:06:32.000
RLS:500-0255000:OWN:12287456,RLS:500-0255000:OWN,RLS:500-0255000:OWN,RLS:500-0255000,LTH,"","","","",OWN,"",,,RLS,I,"12287456",2023-04-11 16:06:32.000
RLS:500-0300202:OWN:12287456,RLS:500-0300202:OWN,RLS:500-0300202:OWN,RLS:500-0300202,LTH,"","","","",OWN,"",,,RLS,I,"12287456",2023-04-11 16:06:32.000
RLS:500-0300305:OWN:12287456,RLS:500-0300305:OWN,RLS:500-0300305:OWN,RLS:500-0300305,LTH,"","","","",OWN,"",,,RLS,I,"12287456",2023-04-11 16:06:32.000
RLS:500-0300860:OWN:12287456,RLS:500-0300860:OWN,RLS:500-0300860:OWN,RLS:500-0300860,LTH,"","","","",OWN,"",,,RLS,I,"12287456",2023-04-11 16:06:32.000
RLS:500-0500002:OWN:12287456,RLS:500-0500002:OWN,RLS:500-0500002:OWN,RLS:500-0500002,LTH,"","","","",OWN,"",,,RLS,I,"12287456",2023-04-11 16:06:32.000
RLS:500-0500550:OWN:12287456,RLS:500-0500550:OWN,RLS:500-0500550:OWN,RLS:500-0500550,LTH,"","","","",OWN,"",,,RLS,I,"12287456",2023-04-11 16:06:32.000
RLS:500-0500852:OWN:12287456,RLS:500-0500852:OWN,RLS:500-0500852:OWN,RLS:500-0500852,LTH,"","","","",OWN,"",,,RLS,I,"12287456",2023-04-11 16:06:32.000
RLS:500-0508203:OWN:12287456,RLS:500-0508203:OWN,RLS:500-0508203:OWN,RLS:500-0508203,LTH,"","","","",OWN,"",,,RLS,I,"12287456",2023-04-11 16:06:32.000
RLS:500-0623008:OWN:12287456,RLS:500-0623008:OWN,RLS:500-0623008:OWN,RLS:500-0623008,LTH,"","","","",OWN,"",,,RLS,I,"12287456",2023-04-11 16:06:32.000
RLS:500-0623060:OWN:12287456,RLS:500-0623060:OWN,RLS:500-0623060:OWN,RLS:500-0623060,LTH,"","","","",OWN,"",,,RLS,I,"12287456",2023-04-11 16:06:32.000
RLS:500-0650380:OWN:12287456,RLS:500-0650380:OWN,RLS:500-0650380:OWN,RLS:500-0650380,LTH,"","","","",OWN,"",,,RLS,I,"12287456",2023-04-11 16:06:32.000
RLS:500-0660000:OWN:12287456,RLS:500-0660000:OWN,RLS:500-0660000:OWN,RLS:500-0660000,LTH,"","","","",OWN,"",,,RLS,I,"12287456",2023-04-11 16:06:32.000
RLS:500-0660683:OWN:12287456,RLS:500-0660683:OWN,RLS:500-0660683:OWN,RLS:500-0660683,LTH,"","","","",OWN,"",,,RLS,I,"12287456",2023-04-11 16:06:32.000
RLS:500-0666000:OWN:12287456,RLS:500-0666000:OWN,RLS:500-0666000:OWN,RLS:500-0666000,LTH,"","","","",OWN,"",,,RLS,I,"12287456",2023-04-11 16:06:32.000
RLS:500-0800000:OWN:12287456,RLS:500-0800000:OWN,RLS:500-0800000:OWN,RLS:500-0800000,LTH,"","","","",OWN,"",,,RLS,I,"12287456",2023-04-11 16:06:32.000
RLS:500-0800805:OWN:12287456,RLS:500-0800805:OWN,RLS:500-0800805:OWN,RLS:500-0800805,LTH,"","","","",OWN,"",,,RLS,I,"12287456",2023-04-11 16:06:32.000
RLS:500-2000000:OWN:12287456,RLS:500-2000000:OWN,RLS:500-2000000:OWN,RLS:500-2000000,LTH,"","","","",OWN,"",,,RLS,I,"12287456",2023-04-11 16:06:32.000
RLS:500-2026868:OWN:12287456,RLS:500-2026868:OWN,RLS:500-2026868:OWN,RLS:500-2026868,LTH,"","","","",OWN,"",,,RLS,I,"12287456",2023-04-11 16:06:32.000
RLS:500-2030605:OWN:12287456,RLS:500-2030605:OWN,RLS:500-2030605:OWN,RLS:500-2030605,LTH,"","","","",OWN,"",,,RLS,I,"12287456",2023-04-11 16:06:32.000
RLS:500-2035002:OWN:12287456,RLS:500-2035002:OWN,RLS:500-2035002:OWN,RLS:500-2035002,LTH,"","","","",OWN,"",,,RLS,I,"12287456",2023-04-11 16:06:32.000
RLS:500-2060035:OWN:12287456,RLS:500-2060035:OWN,RLS:500-2060035:OWN,RLS:500-2060035,LTH,"","","","",OWN,"",,,RLS,I,"12287456",2023-04-11 16:06:32.000
RLS:500-2066625:OWN:12287456,RLS:500-2066625:OWN,RLS:500-2066625:OWN,RLS:500-2066625,LTH,"","","","",OWN,"",,,RLS,I,"12287456",2023-04-11 16:06:32.000
RLS:500-2230638:OWN:12287456,RLS:500-2230638:OWN,RLS:500-2230638:OWN,RLS:500-2230638,LTH,"","","","",OWN,"",,,RLS,I,"12287456",2023-04-11 16:06:32.000
RLS:500-2253020:OWN:12287456,RLS:500-2253020:OWN,RLS:500-2253020:OWN,RLS:500-2253020,LTH,"","","","",OWN,"",,,RLS,I,"12287456",2023-04-11 16:06:32.000
RLS:500-3208002:OWN:12200006,RLS:500-3208002:OWN,RLS:500-3208002:OWN,RLS:500-3208002,LTH,"","","","",OWN,"",,,RLS,U,"12200006",2023-04-11 16:06:32.000
RLS:500-3280658:INS:12200006,RLS:500-3280658:INS,RLS:500-3280658:INS,RLS:500-3280658,LTH,"","","","",INS,"",,,RLS,U,"12200006",2023-04-11 16:06:32.000
RLS:500-3262200:OWN:12200006,RLS:500-3262200:OWN,RLS:500-3262200:OWN,RLS:500-3262200,LTH,"","","","",OWN,"",,,RLS,U,"12200006",2023-04-11 16:06:32.000
RLS:500-0300202:OWN:12200006,RLS:500-0300202:OWN,RLS:500-0300202:OWN,RLS:500-0300202,LTH,"","","","",OWN,"",,,RLS,U,"12200006",2023-04-11 16:06:32.000
RLS:500-0500002:INS:12200006,RLS:500-0500002:INS,RLS:500-0500002:INS,RLS:500-0500002,LTH,"","","","",INS,"",,,RLS,U,"12200006",2023-04-11 16:06:32.000
RLS:500-0300305:OWN:12200006,RLS:500-0300305:OWN,RLS:500-0300305:OWN,RLS:500-0300305,LTH,"","","","",OWN,"",,,RLS,U,"12200006",2023-04-11 16:06:32.000
RLS:500-3280658:OWN:12200006,RLS:500-3280658:OWN,RLS:500-3280658:OWN,RLS:500-3280658,LTH,"","","","",OWN,"",,,RLS,U,"12200006",2023-04-11 16:06:32.000
RLS:500-0300860:OWN:12200006,RLS:500-0300860:OWN,RLS:500-0300860:OWN,RLS:500-0300860,LTH,"","","","",OWN,"",,,RLS,U,"12200006",2023-04-11 16:06:32.000
RLS:500-0300202:INS:12200006,RLS:500-0300202:INS,RLS:500-0300202:INS,RLS:500-0300202,LTH,"","","","",INS,"",,,RLS,U,"12200006",2023-04-11 16:06:32.000
RLS:500-0500002:OWN:12200006,RLS:500-0500002:OWN,RLS:500-0500002:OWN,RLS:500-0500002,LTH,"","","","",OWN,"",,,RLS,U,"12200006",2023-04-11 16:06:32.000
RLS:500-3203800:OWN:12200006,RLS:500-3203800:OWN,RLS:500-3203800:OWN,RLS:500-3203800,LTH,"","","","",OWN,"",,,RLS,U,"12200006",2023-04-11 16:06:32.000
RLS:500-3203800:INS:12200006,RLS:500-3203800:INS,RLS:500-3203800:INS,RLS:500-3203800,LTH,"","","","",INS,"",,,RLS,U,"12200006",2023-04-11 16:06:32.000
RLS:500-0300860:INS:12200006,RLS:500-0300860:INS,RLS:500-0300860:INS,RLS:500-0300860,LTH,"","","","",INS,"",,,RLS,U,"12200006",2023-04-11 16:06:32.000
RLS:500-3262200:INS:12200006,RLS:500-3262200:INS,RLS:500-3262200:INS,RLS:500-3262200,LTH,"","","","",INS,"",,,RLS,U,"12200006",2023-04-11 16:06:32.000
RLS:500-0008803:OWN:10047530,RLS:500-0008803:OWN,RLS:500-0008803:OWN,RLS:500-0008803,LTH,"","","","",OWN,"",,,RLS,U,"10047530",2023-04-12 20:06:32.000
RLS:500-0008803:INS:10047530,RLS:500-0008803:INS,RLS:500-0008803:INS,RLS:500-0008803,LTH,"","","","",INS,"",,,RLS,U,"10047530",2023-04-12 20:06:32.000
RLS:500-0008820:OWN:10047530,RLS:500-0008820:OWN,RLS:500-0008820:OWN,RLS:500-0008820,LTH,"","","","",OWN,"",,,RLS,U,"10047530",2023-04-12 20:06:32.000
RLS:500-2030605:INS:10047530,RLS:500-2030605:INS,RLS:500-2030605:INS,RLS:500-2030605,LTH,"","","","",INS,"",,,RLS,U,"10047530",2023-04-12 20:06:32.000
RLS:500-0050000:OWN:10047530,RLS:500-0050000:OWN,RLS:500-0050000:OWN,RLS:500-0050000,LTH,"","","","",OWN,"",,,RLS,U,"10047530",2023-04-12 20:06:32.000
RLS:500-0008820:INS:10047530,RLS:500-0008820:INS,RLS:500-0008820:INS,RLS:500-0008820,LTH,"","","","",INS,"",,,RLS,U,"10047530",2023-04-12 20:06:32.000
RLS:500-0050033:OWN:10047530,RLS:500-0050033:OWN,RLS:500-0050033:OWN,RLS:500-0050033,LTH,"","","","",OWN,"",,,RLS,U,"10047530",2023-04-12 20:06:32.000
RLS:500-0052003:OWN:10047530,RLS:500-0052003:OWN,RLS:500-0052003:OWN,RLS:500-0052003,LTH,"","","","",OWN,"",,,RLS,U,"10047530",2023-04-12 20:06:32.000
RLS:500-3200003:OWN:10047530,RLS:500-3200003:OWN,RLS:500-3200003:OWN,RLS:500-3200003,LTH,"","","","",OWN,"",,,RLS,U,"10047530",2023-04-12 20:06:32.000
RLS:500-0052003:INS:10047530,RLS:500-0052003:INS,RLS:500-0052003:INS,RLS:500-0052003,LTH,"","","","",INS,"",,,RLS,U,"10047530",2023-04-12 20:06:32.000
RLS:500-3200085:OWN:10047530,RLS:500-3200085:OWN,RLS:500-3200085:OWN,RLS:500-3200085,LTH,"","","","",OWN,"",,,RLS,U,"10047530",2023-04-12 20:06:32.000
RLS:500-3200003:INS:10047530,RLS:500-3200003:INS,RLS:500-3200003:INS,RLS:500-3200003,LTH,"","","","",INS,"",,,RLS,U,"10047530",2023-04-12 20:06:32.000
RLS:500-2030605:OWN:10047530,RLS:500-2030605:OWN,RLS:500-2030605:OWN,RLS:500-2030605,LTH,"","","","",OWN,"",,,RLS,U,"10047530",2023-04-12 20:06:32.000
RLS:500-3200085:INS:10047530,RLS:500-3200085:INS,RLS:500-3200085:INS,RLS:500-3200085,LTH,"","","","",INS,"",,,RLS,U,"10047530",2023-04-12 20:06:32.000
RLS:500-2026868:OWN:10047530,RLS:500-2026868:OWN,RLS:500-2026868:OWN,RLS:500-2026868,LTH,"","","","",OWN,"",,,RLS,U,"10047530",2023-04-12 20:06:32.000
RLS:500-0660000:OWN:19990016,RLS:500-0660000:OWN,RLS:500-0660000:OWN,RLS:500-0660000,LTH,"","","","",OWN,"",,,RLS,U,"19990016",2023-04-13 13:06:32.000
RLS:500-0508203:OWN:19990016,RLS:500-0508203:OWN,RLS:500-0508203:OWN,RLS:500-0508203,LTH,"","","","",OWN,"",,,RLS,U,"19990016",2023-04-13 13:06:32.000
RLS:500-0623008:OWN:19990016,RLS:500-0623008:OWN,RLS:500-0623008:OWN,RLS:500-0623008,LTH,"","","","",OWN,"",,,RLS,U,"19990016",2023-04-13 13:06:32.000
RLS:500-0623060:OWN:19990016,RLS:500-0623060:OWN,RLS:500-0623060:OWN,RLS:500-0623060,LTH,"","","","",OWN,"",,,RLS,U,"19990016",2023-04-13 13:06:32.000
RLS:500-0650380:OWN:19990016,RLS:500-0650380:OWN,RLS:500-0650380:OWN,RLS:500-0650380,LTH,"","","","",OWN,"",,,RLS,U,"19990016",2023-04-13 13:06:32.000
RLS:500-0660683:OWN:19990016,RLS:500-0660683:OWN,RLS:500-0660683:OWN,RLS:500-0660683,LTH,"","","","",OWN,"",,,RLS,U,"19990016",2023-04-13 13:06:32.000
RLS:500-0666000:OWN:19990016,RLS:500-0666000:OWN,RLS:500-0666000:OWN,RLS:500-0666000,LTH,"","","","",OWN,"",,,RLS,U,"19990016",2023-04-13 13:06:32.000
RLS:500-0623060:INS:19990016,RLS:500-0623060:INS,RLS:500-0623060:INS,RLS:500-0623060,LTH,"","","","",INS,"",,,RLS,U,"19990016",2023-04-13 13:06:32.000
RLS:500-0650380:INS:19990016,RLS:500-0650380:INS,RLS:500-0650380:INS,RLS:500-0650380,LTH,"","","","",INS,"",,,RLS,U,"19990016",2023-04-13 13:06:32.000
RLS:500-0666000:INS:19990016,RLS:500-0666000:INS,RLS:500-0666000:INS,RLS:500-0666000,LTH,"","","","",INS,"",,,RLS,U,"19990016",2023-04-13 13:06:32.000
RLS:500-3386200:OWN:19990016,RLS:500-3386200:OWN,RLS:500-3386200:OWN,RLS:500-3386200,LTH,"","","","",OWN,"",,,RLS,U,"19990016",2023-04-14 14:06:32.000
RLS:500-3300226:OWN:19990016,RLS:500-3300226:OWN,RLS:500-3300226:OWN,RLS:500-3300226,LTH,"","","","",OWN,"",,,RLS,U,"19990016",2023-04-14 14:06:32.000
RLS:500-3386200:INS:19990016,RLS:500-3386200:INS,RLS:500-3386200:INS,RLS:500-3386200,LTH,"","","","",INS,"",,,RLS,U,"19990016",2023-04-14 14:06:32.000
RLS:500-6050000:OWN:19990016,RLS:500-6050000:OWN,RLS:500-6050000:OWN,RLS:500-6050000,LTH,"","","","",OWN,"",,,RLS,U,"19990016",2023-04-14 14:06:32.000
RLS:500-3305803:OWN:19990016,RLS:500-3305803:OWN,RLS:500-3305803:OWN,RLS:500-3305803,LTH,"","","","",OWN,"",,,RLS,U,"19990016",2023-04-14 14:06:32.000
RLS:500-3305080:INS:19990016,RLS:500-3305080:INS,RLS:500-3305080:INS,RLS:500-3305080,LTH,"","","","",INS,"",,,RLS,U,"19990016",2023-04-14 14:06:32.000
RLS:500-6050000:INS:19990016,RLS:500-6050000:INS,RLS:500-6050000:INS,RLS:500-6050000,LTH,"","","","",INS,"",,,RLS,U,"19990016",2023-04-14 14:06:32.000
RLS:500-3305080:OWN:19990016,RLS:500-3305080:OWN,RLS:500-3305080:OWN,RLS:500-3305080,LTH,"","","","",OWN,"",,,RLS,U,"19990016",2023-04-14 14:06:32.000
RLS:500-3380258:OWN:19990016,RLS:500-3380258:OWN,RLS:500-3380258:OWN,RLS:500-3380258,LTH,"","","","",OWN,"",,,RLS,U,"19990016",2023-04-14 14:06:32.000
RLS:500-3305803:INS:19990016,RLS:500-3305803:INS,RLS:500-3305803:INS,RLS:500-3305803,LTH,"","","","",INS,"",,,RLS,U,"19990016",2023-04-14 14:06:32.000
RLS:500-2300080:OWN:19990016,RLS:500-2300080:OWN,RLS:500-2300080:OWN,RLS:500-2300080,LTH,"","","","",OWN,"",,,RLS,U,"19990016",2023-04-15 21:06:32.000
RLS:500-2253020:OWN:19990016,RLS:500-2253020:OWN,RLS:500-2253020:OWN,RLS:500-2253020,LTH,"","","","",OWN,"",,,RLS,U,"19990016",2023-04-15 21:06:32.000
RLS:500-2300080:INS:19990016,RLS:500-2300080:INS,RLS:500-2300080:INS,RLS:500-2300080,LTH,"","","","",INS,"",,,RLS,U,"19990016",2023-04-15 21:06:32.000
RLS:500-2230638:INS:19990016,RLS:500-2230638:INS,RLS:500-2230638:INS,RLS:500-2230638,LTH,"","","","",INS,"",,,RLS,U,"19990016",2023-04-15 21:06:32.000
RLS:500-2066625:INS:19990016,RLS:500-2066625:INS,RLS:500-2066625:INS,RLS:500-2066625,LTH,"","","","",INS,"",,,RLS,U,"19990016",2023-04-15 21:06:32.000
RLS:500-2253020:INS:19990016,RLS:500-2253020:INS,RLS:500-2253020:INS,RLS:500-2253020,LTH,"","","","",INS,"",,,RLS,U,"19990016",2023-04-15 21:06:32.000
RLS:500-3003852:INS:19990016,RLS:500-3003852:INS,RLS:500-3003852:INS,RLS:500-3003852,LTH,"","","","",INS,"",,,RLS,U,"19990016",2023-04-15 21:06:32.000
RLS:500-2066625:OWN:19990016,RLS:500-2066625:OWN,RLS:500-2066625:OWN,RLS:500-2066625,LTH,"","","","",OWN,"",,,RLS,U,"19990016",2023-04-15 21:06:32.000
RLS:500-3003852:OWN:19990016,RLS:500-3003852:OWN,RLS:500-3003852:OWN,RLS:500-3003852,LTH,"","","","",OWN,"",,,RLS,U,"19990016",2023-04-15 21:06:32.000
RLS:500-2230638:OWN:19990016,RLS:500-2230638:OWN,RLS:500-2230638:OWN,RLS:500-2230638,LTH,"","","","",OWN,"",,,RLS,U,"19990016",2023-04-15 21:06:32.000
